…
## Joining, by = "beeColHive"

fta <- fta %>%
  mutate(beeColHive = factor(beeColHive, levels = bb$beeColHive)) %>% 
  mutate(t5 = recode(.$trt, "full" = "Full range\n(220 - 450 Hz)", 
                       "high" = "High range\n(340 - 390 Hz)", 
                       "low" = "Low range\n(220 - 330 Hz)")) %>%
  filter(trialNum <= 10)

s44 = fta %>%
  group_by(trialNum, beeColHive, t5) %>%
  dplyr::summarise(meanFreq2 = mean(freq))
s44

## # A tibble: 175 x 4
## # Groups:   trialNum, beeColHive [?]
##    trialNum beeColHive    t5                           meanFreq2
##       <dbl> <fct>         <fct>                            <dbl>
##  1        1 green.4       "Full range\n(220 - 450 Hz)"      319.
##  2        1 white.4       "Full range\n(220 - 450 Hz)"      343.
##  3        1 yellowgreen.5 "Full range\n(220 - 450 Hz)"      298.
##  4        1 redgreen.5    "Full range\n(220 - 450 Hz)"      335.
##  5        1 redblue.4     "Full range\n(220 - 450 Hz)"      342.
##  6        1 limeblue.5    "Full range\n(220 - 450 Hz)"      302.
##  7        1 yellowred.5   "Full range\n(220 - 450 Hz)"      320.
##  8        1 whiteyellow.5 "Full range\n(220 - 450 Hz)"      303.
##  9        1 limewhite.5   "Full range\n(220 - 450 Hz)"      292 
## 10        1 limeorange.5  "Full range\n(220 - 450 Hz)"      286.
## # ... with 165 more rows
…
